Hierarchical Forecasting of Dengue Incidence in Sri Lanka
…
<img src="images/Rowdata.JPG" width="100%" height="40%" />

---

# Data preprocessing

### Tidy data

* Each variable forms a column.
* Each observation forms a row.
* Each cell is a single measurement.

```
## # A tibble: 18,980 x 18
##       V1  Year  Week StartDate  EndDate    Division    Dengue Dysentery
##    <int> <int> <int> <date>     <date>     <chr>        <int>     <int>
##  1     1  2006    52 2006-12-23 2006-12-29 Colombo         71         2
##  2     2  2006    52 2006-12-23 2006-12-29 Gampaha         12         0
##  3     3  2006    52 2006-12-23 2006-12-29 Kalutara        12         6
##  4     4  2006    52 2006-12-23 2006-12-29 Kandy           20         5
##  5     5  2006    52 2006-12-23 2006-12-29 Matale           4         0
##  6     6  2006    52 2006-12-23 2006-12-29 NuwaraEliya      1         1
##  7     7  2006    52 2006-12-23 2006-12-29 Galle            1         2
##  8     8  2006    52 2006-12-23 2006-12-29 Hambanthota      1         1
##  9     9  2006    52 2006-12-23 2006-12-29 Matara          11         3
## 10    10  2006    52 2006-12-23 2006-12-29 Jaffna           0         0
## # ... with 18,970 more rows, and 10 more variables: Encephalitis <int>,
## #   Enteric Fever <int>, Food Poisioning <int>, Leptospirosis <int>,
## #   Typhus Fever <int>, Viral Hepatistis <int>, Human Rabies <int>,
## #   Chickenpox <int>, Meningitis <int>, Leishmaniasis <dbl>
```
…
